%YAML 1.1
%TAG !u! tag:unity3d.com,2011:
--- !u!1 &6535043299890218542
GameObject:
  m_ObjectHideFlags: 0
  m_CorrespondingSourceObject: {fileID: 0}
  m_PrefabInstance: {fileID: 0}
  m_PrefabAsset: {fileID: 0}
  serializedVersion: 6
  m_Component:
  - component: {fileID: 6535043299890218540}
  - component: {fileID: 6535043299890218541}
  m_Layer: 0
  m_Name: MouseLogic
  m_TagString: Untagged
  m_Icon: {fileID: 0}
  m_NavMeshLayer: 0
  m_StaticEditorFlags: 0
  m_IsActive: 1
--- !u!4 &6535043299890218540
Transform:
  m_ObjectHideFlags: 0
  m_CorrespondingSourceObject: {fileID: 0}
  m_PrefabInstance: {fileID: 0}
  m_PrefabAsset: {fileID: 0}
  m_GameObject: {fileID: 6535043299890218542}
  m_LocalRotation: {x: 0, y: 0, z: 0, w: 1}
  m_LocalPosition: {x: 2.598947, y: 2.2607064, z: -7.2050447}
  m_LocalScale: {x: 1, y: 1, z: 1}
  m_Children: []
  m_Father: {fileID: 0}
  m_RootOrder: 0
  m_LocalEulerAnglesHint: {x: 0, y: 0, z: 0}
--- !u!114 &6535043299890218541
MonoBehaviour:
  m_ObjectHideFlags: 0
  m_CorrespondingSourceObject: {fileID: 0}
  m_PrefabInstance: {fileID: 0}
  m_PrefabAsset: {fileID: 0}
  m_GameObject: {fileID: 6535043299890218542}
  m_Enabled: 1
  m_EditorHideFlags: 0
  m_Script: {fileID: 11500000, guid: 2773eb2ba360fe5429d85a018c7b7023, type: 3}
  m_Name: 
  m_EditorClassIdentifier: 
  _refPipePrefab: {fileID: 8139488650241017287, guid: 83a85719796de414297b2459d25f8a53, type: 3}
  circle: {fileID: 0}
  currentConectorA: {fileID: 0}
  currentConectorB: {fileID: 0}
  currentRecipent: {fileID: 0}
  currentCT: 0
